<svg width="120" height="120" viewBox="0 0 120 120" fill="none" xmlns="http://www.w3.org/2000/svg">
<g filter="url(#filter0_d)">
<path d="M10 22C10 13.1634 17.1634 6 26 6H94C102.837 6 110 13.1634 110 22V106H26C17.1634 106 10 98.8366 10 90V22Z" fill="white"/>
</g>
<g clip-path="url(#clip0)">
<path d="M40.7576 49.3151C40.9002 49.4578 41.0876 49.5295 41.2749 49.5295C41.4622 49.5295 41.6495 49.4582 41.7925 49.3151C42.0782 49.0294 42.0782 48.5659 41.7925 48.2802L40.0156 46.5033L41.7925 44.7268C42.0782 44.4407 42.0782 43.9776 41.7925 43.6918C41.5068 43.4061 41.0433 43.4061 40.7576 43.6918L38.4634 45.986C38.3261 46.1233 38.249 46.3095 38.249 46.5033C38.249 46.6974 38.3261 46.8836 38.4634 47.0209L40.7576 49.3151Z" fill="black"/>
<path d="M40.7576 49.3151C40.9002 49.4578 41.0876 49.5295 41.2749 49.5295C41.4622 49.5295 41.6495 49.4582 41.7925 49.3151C42.0782 49.0294 42.0782 48.5659 41.7925 48.2802L40.0156 46.5033L41.7925 44.7268C42.0782 44.4407 42.0782 43.9776 41.7925 43.6918C41.5068 43.4061 41.0433 43.4061 40.7576 43.6918L38.4634 45.986C38.3261 46.1233 38.249 46.3095 38.249 46.5033C38.249 46.6974 38.3261 46.8836 38.4634 47.0209L40.7576 49.3151Z" fill="url(#paint0_linear)"/>
<path d="M48.0195 46.5032L46.2426 48.2801C45.9568 48.5658 45.9568 49.0293 46.2429 49.315C46.3856 49.4577 46.5729 49.5294 46.7602 49.5294C46.9475 49.5294 47.1348 49.4577 47.2775 49.315L49.572 47.0204C49.8578 46.7347 49.8578 46.2712 49.572 45.9859L47.2775 43.6913C46.9918 43.4056 46.5287 43.4056 46.2429 43.6913C45.9568 43.9774 45.9568 44.4406 46.2429 44.7263L48.0195 46.5032Z" fill="black"/>
<path d="M48.0195 46.5032L46.2426 48.2801C45.9568 48.5658 45.9568 49.0293 46.2429 49.315C46.3856 49.4577 46.5729 49.5294 46.7602 49.5294C46.9475 49.5294 47.1348 49.4577 47.2775 49.315L49.572 47.0204C49.8578 46.7347 49.8578 46.2712 49.572 45.9859L47.2775 43.6913C46.9918 43.4056 46.5287 43.4056 46.2429 43.6913C45.9568 43.9774 45.9568 44.4406 46.2429 44.7263L48.0195 46.5032Z" fill="url(#paint1_linear)"/>
<path d="M42.9272 49.4786C43.015 49.5129 43.1057 49.5293 43.1946 49.5293C43.4868 49.5293 43.7626 49.3531 43.8759 49.0651L45.6784 44.4763C45.8264 44.1002 45.641 43.6756 45.2649 43.5276C44.8891 43.38 44.4642 43.565 44.3165 43.9411L42.5137 48.5299C42.3661 48.906 42.5511 49.3309 42.9272 49.4786Z" fill="black"/>
<path d="M42.9272 49.4786C43.015 49.5129 43.1057 49.5293 43.1946 49.5293C43.4868 49.5293 43.7626 49.3531 43.8759 49.0651L45.6784 44.4763C45.8264 44.1002 45.641 43.6756 45.2649 43.5276C44.8891 43.38 44.4642 43.565 44.3165 43.9411L42.5137 48.5299C42.3661 48.906 42.5511 49.3309 42.9272 49.4786Z" fill="url(#paint2_linear)"/>
<path d="M39.3957 53.8224H44.3255C44.7295 53.8224 45.0571 53.4947 45.0571 53.0903C45.0571 52.6863 44.7295 52.3586 44.3255 52.3586H39.3957C38.9914 52.3586 38.6641 52.6863 38.6641 53.0903C38.6641 53.4947 38.9914 53.8224 39.3957 53.8224Z" fill="black"/>
<path d="M39.3957 53.8224H44.3255C44.7295 53.8224 45.0571 53.4947 45.0571 53.0903C45.0571 52.6863 44.7295 52.3586 44.3255 52.3586H39.3957C38.9914 52.3586 38.6641 52.6863 38.6641 53.0903C38.6641 53.4947 38.9914 53.8224 39.3957 53.8224Z" fill="url(#paint3_linear)"/>
<path d="M55.679 52.3586H47.0119C46.608 52.3586 46.2803 52.6863 46.2803 53.0903C46.2803 53.4947 46.608 53.8224 47.0119 53.8224H55.679C56.0833 53.8224 56.411 53.4947 56.411 53.0903C56.411 52.6863 56.0833 52.3586 55.679 52.3586Z" fill="black"/>
<path d="M55.679 52.3586H47.0119C46.608 52.3586 46.2803 52.6863 46.2803 53.0903C46.2803 53.4947 46.608 53.8224 47.0119 53.8224H55.679C56.0833 53.8224 56.411 53.4947 56.411 53.0903C56.411 52.6863 56.0833 52.3586 55.679 52.3586Z" fill="url(#paint4_linear)"/>
<path d="M39.3957 56.9093H41.4957C41.8997 56.9093 42.2274 56.5816 42.2274 56.1772C42.2274 55.7732 41.8997 55.4456 41.4957 55.4456H39.3957C38.9914 55.4456 38.6641 55.7732 38.6641 56.1772C38.6641 56.5816 38.9914 56.9093 39.3957 56.9093Z" fill="black"/>
<path d="M39.3957 56.9093H41.4957C41.8997 56.9093 42.2274 56.5816 42.2274 56.1772C42.2274 55.7732 41.8997 55.4456 41.4957 55.4456H39.3957C38.9914 55.4456 38.6641 55.7732 38.6641 56.1772C38.6641 56.5816 38.9914 56.9093 39.3957 56.9093Z" fill="url(#paint5_linear)"/>
<path d="M53.0022 55.4456C52.5978 55.4456 52.2705 55.7732 52.2705 56.1772C52.2705 56.5816 52.5978 56.9093 53.0022 56.9093H54.2809C54.6852 56.9093 55.0129 56.5816 55.0129 56.1772C55.0129 55.7732 54.6852 55.4456 54.2809 55.4456H53.0022Z" fill="black"/>
<path d="M53.0022 55.4456C52.5978 55.4456 52.2705 55.7732 52.2705 56.1772C52.2705 56.5816 52.5978 56.9093 53.0022 56.9093H54.2809C54.6852 56.9093 55.0129 56.5816 55.0129 56.1772C55.0129 55.7732 54.6852 55.4456 54.2809 55.4456H53.0022Z" fill="url(#paint6_linear)"/>
<path d="M51.0757 56.1772C51.0757 55.7732 50.748 55.4456 50.344 55.4456H44.0627C43.6584 55.4456 43.3311 55.7732 43.3311 56.1772C43.3311 56.5816 43.6584 56.9093 44.0627 56.9093H50.344C50.748 56.9093 51.0757 56.5816 51.0757 56.1772Z" fill="black"/>
<path d="M51.0757 56.1772C51.0757 55.7732 50.748 55.4456 50.344 55.4456H44.0627C43.6584 55.4456 43.3311 55.7732 43.3311 56.1772C43.3311 56.5816 43.6584 56.9093 44.0627 56.9093H50.344C50.748 56.9093 51.0757 56.5816 51.0757 56.1772Z" fill="url(#paint7_linear)"/>
<path d="M55.8691 56.1772C55.8691 56.5816 56.1968 56.9093 56.6008 56.9093H58.9961C59.4004 56.9093 59.7281 56.5816 59.7281 56.1772C59.7281 55.7732 59.4004 55.4456 58.9961 55.4456H56.6008C56.1968 55.4456 55.8691 55.7732 55.8691 56.1772Z" fill="black"/>
<path d="M55.8691 56.1772C55.8691 56.5816 56.1968 56.9093 56.6008 56.9093H58.9961C59.4004 56.9093 59.7281 56.5816 59.7281 56.1772C59.7281 55.7732 59.4004 55.4456 58.9961 55.4456H56.6008C56.1968 55.4456 55.8691 55.7732 55.8691 56.1772Z" fill="url(#paint8_linear)"/>
<path d="M51.8844 47.0904H54.4109C54.8152 47.0904 55.1429 46.7627 55.1429 46.3584C55.1429 45.9544 54.8152 45.6267 54.4109 45.6267H51.8844C51.48 45.6267 51.1523 45.9544 51.1523 46.3584C51.1523 46.7627 51.48 47.0904 51.8844 47.0904Z" fill="black"/>
<path d="M51.8844 47.0904H54.4109C54.8152 47.0904 55.1429 46.7627 55.1429 46.3584C55.1429 45.9544 54.8152 45.6267 54.4109 45.6267H51.8844C51.48 45.6267 51.1523 45.9544 51.1523 46.3584C51.1523 46.7627 51.48 47.0904 51.8844 47.0904Z" fill="url(#paint9_linear)"/>
<path d="M57.2408 47.0904H72.6565C73.0608 47.0904 73.3881 46.7627 73.3881 46.3584C73.3881 45.9544 73.0608 45.6267 72.6565 45.6267H57.2408C56.8365 45.6267 56.5088 45.9544 56.5088 46.3584C56.5088 46.7627 56.8365 47.0904 57.2408 47.0904Z" fill="black"/>
<path d="M57.2408 47.0904H72.6565C73.0608 47.0904 73.3881 46.7627 73.3881 46.3584C73.3881 45.9544 73.0608 45.6267 72.6565 45.6267H57.2408C56.8365 45.6267 56.5088 45.9544 56.5088 46.3584C56.5088 46.7627 56.8365 47.0904 57.2408 47.0904Z" fill="url(#paint10_linear)"/>
<path d="M70.3152 48.8462H64.0705C63.6665 48.8462 63.3389 49.1739 63.3389 49.5782C63.3389 49.9822 63.6665 50.3099 64.0705 50.3099H70.3152C70.7192 50.3099 71.0468 49.9822 71.0468 49.5782C71.0468 49.1739 70.7192 48.8462 70.3152 48.8462Z" fill="black"/>
<path d="M70.3152 48.8462H64.0705C63.6665 48.8462 63.3389 49.1739 63.3389 49.5782C63.3389 49.9822 63.6665 50.3099 64.0705 50.3099H70.3152C70.7192 50.3099 71.0468 49.9822 71.0468 49.5782C71.0468 49.1739 70.7192 48.8462 70.3152 48.8462Z" fill="url(#paint11_linear)"/>
<path d="M61.7288 48.8462H59.5822C59.1779 48.8462 58.8506 49.1739 58.8506 49.5782C58.8506 49.9822 59.1779 50.3099 59.5822 50.3099H61.7288C62.1331 50.3099 62.4605 49.9822 62.4605 49.5782C62.4605 49.1739 62.1331 48.8462 61.7288 48.8462Z" fill="black"/>
<path d="M61.7288 48.8462H59.5822C59.1779 48.8462 58.8506 49.1739 58.8506 49.5782C58.8506 49.9822 59.1779 50.3099 59.5822 50.3099H61.7288C62.1331 50.3099 62.4605 49.9822 62.4605 49.5782C62.4605 49.1739 62.1331 48.8462 61.7288 48.8462Z" fill="url(#paint12_linear)"/>
<path d="M51.8844 50.3099H57.143C57.5469 50.3099 57.8746 49.9822 57.8746 49.5782C57.8746 49.1739 57.5469 48.8462 57.143 48.8462H51.8844C51.48 48.8462 51.1523 49.1739 51.1523 49.5782C51.1523 49.9822 51.48 50.3099 51.8844 50.3099Z" fill="black"/>
<path d="M51.8844 50.3099H57.143C57.5469 50.3099 57.8746 49.9822 57.8746 49.5782C57.8746 49.1739 57.5469 48.8462 57.143 48.8462H51.8844C51.48 48.8462 51.1523 49.1739 51.1523 49.5782C51.1523 49.9822 51.48 50.3099 51.8844 50.3099Z" fill="url(#paint13_linear)"/>
<path d="M50.3538 58.5061H45.4244C45.0201 58.5061 44.6924 58.8338 44.6924 59.2378C44.6924 59.6417 45.0201 59.9694 45.4244 59.9694H50.3538C50.7578 59.9694 51.0855 59.6417 51.0855 59.2378C51.0855 58.8338 50.7578 58.5061 50.3538 58.5061Z" fill="black"/>
<path d="M50.3538 58.5061H45.4244C45.0201 58.5061 44.6924 58.8338 44.6924 59.2378C44.6924 59.6417 45.0201 59.9694 45.4244 59.9694H50.3538C50.7578 59.9694 51.0855 59.6417 51.0855 59.2378C51.0855 58.8338 50.7578 58.5061 50.3538 58.5061Z" fill="url(#paint14_linear)"/>
<path d="M43.183 58.5061H39.3957C38.9914 58.5061 38.6641 58.8338 38.6641 59.2378C38.6641 59.6417 38.9914 59.9694 39.3957 59.9694H43.183C43.5873 59.9694 43.9146 59.6417 43.9146 59.2378C43.9146 58.8338 43.5873 58.5061 43.183 58.5061Z" fill="black"/>
<path d="M43.183 58.5061H39.3957C38.9914 58.5061 38.6641 58.8338 38.6641 59.2378C38.6641 59.6417 38.9914 59.9694 39.3957 59.9694H43.183C43.5873 59.9694 43.9146 59.6417 43.9146 59.2378C43.9146 58.8338 43.5873 58.5061 43.183 58.5061Z" fill="url(#paint15_linear)"/>
<path d="M59.2894 58.5061H52.8498C52.4455 58.5061 52.1182 58.8338 52.1182 59.2378C52.1182 59.6417 52.4455 59.9694 52.8498 59.9694H59.2894C59.6934 59.9694 60.0211 59.6417 60.0211 59.2378C60.0211 58.8338 59.6934 58.5061 59.2894 58.5061Z" fill="black"/>
<path d="M59.2894 58.5061H52.8498C52.4455 58.5061 52.1182 58.8338 52.1182 59.2378C52.1182 59.6417 52.4455 59.9694 52.8498 59.9694H59.2894C59.6934 59.9694 60.0211 59.6417 60.0211 59.2378C60.0211 58.8338 59.6934 58.5061 59.2894 58.5061Z" fill="url(#paint16_linear)"/>
<path d="M67.9981 54.7471H64.4768C64.0728 54.7471 63.7451 55.0748 63.7451 55.4787C63.7451 55.8831 64.0728 56.2108 64.4768 56.2108H67.9981C68.4025 56.2108 68.7298 55.8831 68.7298 55.4787C68.7298 55.0748 68.4025 54.7471 67.9981 54.7471Z" fill="black"/>
<path d="M67.9981 54.7471H64.4768C64.0728 54.7471 63.7451 55.0748 63.7451 55.4787C63.7451 55.8831 64.0728 56.2108 64.4768 56.2108H67.9981C68.4025 56.2108 68.7298 55.8831 68.7298 55.4787C68.7298 55.0748 68.4025 54.7471 67.9981 54.7471Z" fill="url(#paint17_linear)"/>
<path d="M74.1086 56.2108H79.0796C79.4839 56.2108 79.8116 55.8831 79.8116 55.4787C79.8116 55.0748 79.4839 54.7471 79.0796 54.7471H74.1086C73.7043 54.7471 73.377 55.0748 73.377 55.4787C73.377 55.8831 73.7046 56.2108 74.1086 56.2108Z" fill="black"/>
<path d="M74.1086 56.2108H79.0796C79.4839 56.2108 79.8116 55.8831 79.8116 55.4787C79.8116 55.0748 79.4839 54.7471 79.0796 54.7471H74.1086C73.7043 54.7471 73.377 55.0748 73.377 55.4787C73.377 55.8831 73.7046 56.2108 74.1086 56.2108Z" fill="url(#paint18_linear)"/>
<path d="M71.6231 54.7471H70.484C70.0796 54.7471 69.752 55.0748 69.752 55.4787C69.752 55.8831 70.0796 56.2108 70.484 56.2108H71.6231C72.0275 56.2108 72.3548 55.8831 72.3548 55.4787C72.3548 55.0748 72.0275 54.7471 71.6231 54.7471Z" fill="black"/>
<path d="M71.6231 54.7471H70.484C70.0796 54.7471 69.752 55.0748 69.752 55.4787C69.752 55.8831 70.0796 56.2108 70.484 56.2108H71.6231C72.0275 56.2108 72.3548 55.8831 72.3548 55.4787C72.3548 55.0748 72.0275 54.7471 71.6231 54.7471Z" fill="url(#paint19_linear)"/>
<path d="M64.4768 64.185H67.9981C68.4025 64.185 68.7298 63.8577 68.7298 63.4533C68.7298 63.0494 68.4025 62.7217 67.9981 62.7217H64.4768C64.0728 62.7217 63.7451 63.0494 63.7451 63.4533C63.7451 63.8577 64.0728 64.185 64.4768 64.185Z" fill="black"/>
<path d="M64.4768 64.185H67.9981C68.4025 64.185 68.7298 63.8577 68.7298 63.4533C68.7298 63.0494 68.4025 62.7217 67.9981 62.7217H64.4768C64.0728 62.7217 63.7451 63.0494 63.7451 63.4533C63.7451 63.8577 64.0728 64.185 64.4768 64.185Z" fill="url(#paint20_linear)"/>
<path d="M74.1086 64.185H79.0796C79.4839 64.185 79.8116 63.8577 79.8116 63.4533C79.8116 63.0494 79.4839 62.7217 79.0796 62.7217H74.1086C73.7043 62.7217 73.377 63.0494 73.377 63.4533C73.377 63.8577 73.7046 64.185 74.1086 64.185Z" fill="black"/>
<path d="M74.1086 64.185H79.0796C79.4839 64.185 79.8116 63.8577 79.8116 63.4533C79.8116 63.0494 79.4839 62.7217 79.0796 62.7217H74.1086C73.7043 62.7217 73.377 63.0494 73.377 63.4533C73.377 63.8577 73.7046 64.185 74.1086 64.185Z" fill="url(#paint21_linear)"/>
<path d="M70.4836 64.185H71.6227C72.0271 64.185 72.3548 63.8577 72.3548 63.4533C72.3548 63.0494 72.0271 62.7217 71.6227 62.7217H70.4836C70.0793 62.7217 69.752 63.0494 69.752 63.4533C69.752 63.8577 70.0793 64.185 70.4836 64.185Z" fill="black"/>
<path d="M70.4836 64.185H71.6227C72.0271 64.185 72.3548 63.8577 72.3548 63.4533C72.3548 63.0494 72.0271 62.7217 71.6227 62.7217H70.4836C70.0793 62.7217 69.752 63.0494 69.752 63.4533C69.752 63.8577 70.0793 64.185 70.4836 64.185Z" fill="url(#paint22_linear)"/>
<path d="M67.9981 70.6963H64.4768C64.0728 70.6963 63.7451 71.024 63.7451 71.4279C63.7451 71.8319 64.0728 72.1596 64.4768 72.1596H67.9981C68.4025 72.1596 68.7298 71.8319 68.7298 71.4279C68.7298 71.024 68.4025 70.6963 67.9981 70.6963Z" fill="black"/>
<path d="M67.9981 70.6963H64.4768C64.0728 70.6963 63.7451 71.024 63.7451 71.4279C63.7451 71.8319 64.0728 72.1596 64.4768 72.1596H67.9981C68.4025 72.1596 68.7298 71.8319 68.7298 71.4279C68.7298 71.024 68.4025 70.6963 67.9981 70.6963Z" fill="url(#paint23_linear)"/>
<path d="M79.0796 70.6963H74.1086C73.7043 70.6963 73.377 71.024 73.377 71.4279C73.377 71.8319 73.7043 72.1596 74.1086 72.1596H79.0796C79.4839 72.1596 79.8116 71.8319 79.8116 71.4279C79.8116 71.024 79.4839 70.6963 79.0796 70.6963Z" fill="black"/>
<path d="M79.0796 70.6963H74.1086C73.7043 70.6963 73.377 71.024 73.377 71.4279C73.377 71.8319 73.7043 72.1596 74.1086 72.1596H79.0796C79.4839 72.1596 79.8116 71.8319 79.8116 71.4279C79.8116 71.024 79.4839 70.6963 79.0796 70.6963Z" fill="url(#paint24_linear)"/>
<path d="M71.6231 70.6963H70.484C70.0796 70.6963 69.752 71.024 69.752 71.4279C69.752 71.8319 70.0796 72.1596 70.484 72.1596H71.6231C72.0275 72.1596 72.3548 71.8319 72.3548 71.4279C72.3548 71.024 72.0275 70.6963 71.6231 70.6963Z" fill="black"/>
<path d="M71.6231 70.6963H70.484C70.0796 70.6963 69.752 71.024 69.752 71.4279C69.752 71.8319 70.0796 72.1596 70.484 72.1596H71.6231C72.0275 72.1596 72.3548 71.8319 72.3548 71.4279C72.3548 71.024 72.0275 70.6963 71.6231 70.6963Z" fill="url(#paint25_linear)"/>
<path d="M81.7798 31.0977H38.2208C36.445 31.0977 35 32.5423 35 34.3184V69.7255C35 71.5012 36.445 72.9459 38.2208 72.9459H40.9746C41.3786 72.9459 41.7063 72.6185 41.7063 72.2142C41.7063 71.8102 41.3786 71.4825 40.9746 71.4825H38.2208C37.2518 71.4825 36.4637 70.6944 36.4637 69.7255V66.9495H63.1236V68.2106H62.5434C61.7495 68.2106 61.1041 68.8561 61.1041 69.6499V71.4825H45.4237C45.0197 71.4825 44.692 71.8102 44.692 72.2142C44.692 72.6185 45.0197 72.9459 45.4237 72.9459H52.4596V75.5704H50.2501C48.7761 75.5704 47.5771 76.7697 47.5771 78.2433V79.8242C47.5771 80.4967 48.1241 81.0437 48.7967 81.0437H71.1478C71.8204 81.0437 72.3674 80.4967 72.3674 79.8242V78.2433C72.3674 76.7697 71.1684 75.5704 69.6944 75.5704H67.4849V74.6453H81.0131C81.8065 74.6453 82.452 73.9999 82.452 73.206V72.8615C83.8783 72.5304 84.9445 71.2506 84.9445 69.7255L84.9998 34.318C85.0002 32.5423 83.5556 31.0977 81.7798 31.0977ZM62.5678 65.2073V61.6997H80.9886V65.2073H62.5678ZM64.5869 60.236V58.6964H78.9691V60.236H64.5869ZM78.9691 66.6706V68.2106H64.5869V66.6706H78.9691ZM53.9229 72.9459H61.1041V73.2064C61.1041 73.9999 61.7495 74.6453 62.5434 74.6453H66.0216V75.5704H53.9229V72.9459ZM69.6948 77.0341C70.3616 77.0341 70.9041 77.5765 70.9041 78.2433V79.5804H49.0404V78.2433C49.0404 77.5765 49.5833 77.0341 50.2501 77.0341H69.6948ZM80.9886 73.1816H62.5678V69.6744H80.9886V73.1816ZM83.4812 69.7255C83.4812 70.4342 83.0585 71.045 82.4523 71.3223V69.6496C82.4523 68.8561 81.8065 68.2106 81.0131 68.2106H80.4328V66.9495H83.4812V69.7255ZM83.4812 65.4862H82.4283C82.4432 65.4034 82.4523 61.6753 82.4523 61.6753C82.4523 60.8814 81.8065 60.236 81.0131 60.236H80.4328V58.6964H81.0131C81.8065 58.6964 82.4523 58.0505 82.4523 57.2571V53.7006C82.4523 52.9071 81.8065 52.2613 81.0131 52.2613H76.8798C76.4755 52.2613 76.1482 52.589 76.1482 52.9934C76.1482 53.3973 76.4755 53.725 76.8798 53.725H80.9886V57.2327H62.5678V53.725H72.3266C72.7309 53.725 73.0582 53.3973 73.0582 52.9934C73.0582 52.589 72.7309 52.2613 72.3266 52.2613H62.5434C61.7495 52.2613 61.1041 52.9071 61.1041 53.7006V57.2571C61.1041 58.0505 61.7495 58.6964 62.5434 58.6964H63.1236V60.236H62.5434C61.7495 60.236 61.1041 60.8818 61.1041 61.6753C61.1041 61.6753 61.1132 65.4034 61.1281 65.4862H36.4637V41.0518H83.4812V65.4862ZM83.4812 39.5881H36.5175V34.318C36.5175 33.3495 37.3056 32.5614 38.2745 32.5614H81.7241C82.6931 32.5614 83.4812 33.3495 83.4812 34.3184V39.5881Z" fill="black"/>
<path d="M81.7798 31.0977H38.2208C36.445 31.0977 35 32.5423 35 34.3184V69.7255C35 71.5012 36.445 72.9459 38.2208 72.9459H40.9746C41.3786 72.9459 41.7063 72.6185 41.7063 72.2142C41.7063 71.8102 41.3786 71.4825 40.9746 71.4825H38.2208C37.2518 71.4825 36.4637 70.6944 36.4637 69.7255V66.9495H63.1236V68.2106H62.5434C61.7495 68.2106 61.1041 68.8561 61.1041 69.6499V71.4825H45.4237C45.0197 71.4825 44.692 71.8102 44.692 72.2142C44.692 72.6185 45.0197 72.9459 45.4237 72.9459H52.4596V75.5704H50.2501C48.7761 75.5704 47.5771 76.7697 47.5771 78.2433V79.8242C47.5771 80.4967 48.1241 81.0437 48.7967 81.0437H71.1478C71.8204 81.0437 72.3674 80.4967 72.3674 79.8242V78.2433C72.3674 76.7697 71.1684 75.5704 69.6944 75.5704H67.4849V74.6453H81.0131C81.8065 74.6453 82.452 73.9999 82.452 73.206V72.8615C83.8783 72.5304 84.9445 71.2506 84.9445 69.7255L84.9998 34.318C85.0002 32.5423 83.5556 31.0977 81.7798 31.0977ZM62.5678 65.2073V61.6997H80.9886V65.2073H62.5678ZM64.5869 60.236V58.6964H78.9691V60.236H64.5869ZM78.9691 66.6706V68.2106H64.5869V66.6706H78.9691ZM53.9229 72.9459H61.1041V73.2064C61.1041 73.9999 61.7495 74.6453 62.5434 74.6453H66.0216V75.5704H53.9229V72.9459ZM69.6948 77.0341C70.3616 77.0341 70.9041 77.5765 70.9041 78.2433V79.5804H49.0404V78.2433C49.0404 77.5765 49.5833 77.0341 50.2501 77.0341H69.6948ZM80.9886 73.1816H62.5678V69.6744H80.9886V73.1816ZM83.4812 69.7255C83.4812 70.4342 83.0585 71.045 82.4523 71.3223V69.6496C82.4523 68.8561 81.8065 68.2106 81.0131 68.2106H80.4328V66.9495H83.4812V69.7255ZM83.4812 65.4862H82.4283C82.4432 65.4034 82.4523 61.6753 82.4523 61.6753C82.4523 60.8814 81.8065 60.236 81.0131 60.236H80.4328V58.6964H81.0131C81.8065 58.6964 82.4523 58.0505 82.4523 57.2571V53.7006C82.4523 52.9071 81.8065 52.2613 81.0131 52.2613H76.8798C76.4755 52.2613 76.1482 52.589 76.1482 52.9934C76.1482 53.3973 76.4755 53.725 76.8798 53.725H80.9886V57.2327H62.5678V53.725H72.3266C72.7309 53.725 73.0582 53.3973 73.0582 52.9934C73.0582 52.589 72.7309 52.2613 72.3266 52.2613H62.5434C61.7495 52.2613 61.1041 52.9071 61.1041 53.7006V57.2571C61.1041 58.0505 61.7495 58.6964 62.5434 58.6964H63.1236V60.236H62.5434C61.7495 60.236 61.1041 60.8818 61.1041 61.6753C61.1041 61.6753 61.1132 65.4034 61.1281 65.4862H36.4637V41.0518H83.4812V65.4862ZM83.4812 39.5881H36.5175V34.318C36.5175 33.3495 37.3056 32.5614 38.2745 32.5614H81.7241C82.6931 32.5614 83.4812 33.3495 83.4812 34.3184V39.5881Z" fill="url(#paint26_linear)"/>
<path d="M40.3963 33.9065C39.2122 33.9065 38.249 34.8697 38.249 36.0538C38.249 37.2379 39.2122 38.2015 40.3963 38.2015C41.5804 38.2015 42.544 37.2379 42.544 36.0538C42.544 34.8697 41.5804 33.9065 40.3963 33.9065ZM40.3963 36.7378C40.0194 36.7378 39.7123 36.4311 39.7123 36.0538C39.7123 35.6769 40.0194 35.3698 40.3963 35.3698C40.7736 35.3698 41.0803 35.6769 41.0803 36.0538C41.0803 36.4311 40.7736 36.7378 40.3963 36.7378Z" fill="black"/>
<path d="M40.3963 33.9065C39.2122 33.9065 38.249 34.8697 38.249 36.0538C38.249 37.2379 39.2122 38.2015 40.3963 38.2015C41.5804 38.2015 42.544 37.2379 42.544 36.0538C42.544 34.8697 41.5804 33.9065 40.3963 33.9065ZM40.3963 36.7378C40.0194 36.7378 39.7123 36.4311 39.7123 36.0538C39.7123 35.6769 40.0194 35.3698 40.3963 35.3698C40.7736 35.3698 41.0803 35.6769 41.0803 36.0538C41.0803 36.4311 40.7736 36.7378 40.3963 36.7378Z" fill="url(#paint27_linear)"/>
<path d="M45.8645 33.9065C44.6804 33.9065 43.7168 34.8697 43.7168 36.0538C43.7168 37.2379 44.6804 38.2015 45.8645 38.2015C47.0486 38.2015 48.0118 37.2379 48.0118 36.0538C48.0118 34.8697 47.0482 33.9065 45.8645 33.9065ZM45.8645 36.7378C45.4872 36.7378 45.1805 36.4311 45.1805 36.0538C45.1805 35.6769 45.4872 35.3698 45.8645 35.3698C46.2414 35.3698 46.5485 35.6769 46.5485 36.0538C46.5485 36.4311 46.2414 36.7378 45.8645 36.7378Z" fill="black"/>
<path d="M45.8645 33.9065C44.6804 33.9065 43.7168 34.8697 43.7168 36.0538C43.7168 37.2379 44.6804 38.2015 45.8645 38.2015C47.0486 38.2015 48.0118 37.2379 48.0118 36.0538C48.0118 34.8697 47.0482 33.9065 45.8645 33.9065ZM45.8645 36.7378C45.4872 36.7378 45.1805 36.4311 45.1805 36.0538C45.1805 35.6769 45.4872 35.3698 45.8645 35.3698C46.2414 35.3698 46.5485 35.6769 46.5485 36.0538C46.5485 36.4311 46.2414 36.7378 45.8645 36.7378Z" fill="url(#paint28_linear)"/>
<path d="M51.3319 33.9065C50.1478 33.9065 49.1846 34.8697 49.1846 36.0538C49.1846 37.2379 50.1478 38.2015 51.3319 38.2015C52.516 38.2015 53.4795 37.2379 53.4795 36.0538C53.4795 34.8697 52.516 33.9065 51.3319 33.9065ZM51.3319 36.7378C50.955 36.7378 50.6479 36.4311 50.6479 36.0538C50.6479 35.6769 50.955 35.3698 51.3319 35.3698C51.7091 35.3698 52.0158 35.6769 52.0158 36.0538C52.0158 36.4311 51.7091 36.7378 51.3319 36.7378Z" fill="black"/>
<path d="M51.3319 33.9065C50.1478 33.9065 49.1846 34.8697 49.1846 36.0538C49.1846 37.2379 50.1478 38.2015 51.3319 38.2015C52.516 38.2015 53.4795 37.2379 53.4795 36.0538C53.4795 34.8697 52.516 33.9065 51.3319 33.9065ZM51.3319 36.7378C50.955 36.7378 50.6479 36.4311 50.6479 36.0538C50.6479 35.6769 50.955 35.3698 51.3319 35.3698C51.7091 35.3698 52.0158 35.6769 52.0158 36.0538C52.0158 36.4311 51.7091 36.7378 51.3319 36.7378Z" fill="url(#paint29_linear)"/>
</g>
<defs>
<filter id="filter0_d" x="0" y="0" width="120" height="120" filterUnits="userSpaceOnUse" color-interpolation-filters="sRGB">
<feFlood flood-opacity="0" result="BackgroundImageFix"/>
<feColorMatrix in="SourceAlpha" type="matrix" values="0 0 0 0 0 0 0 0 0 0 0 0 0 0 0 0 0 0 127 0"/>
<feOffset dy="4"/>
<feGaussianBlur stdDeviation="5"/>
<feColorMatrix type="matrix" values="0 0 0 0 0.709804 0 0 0 0 0.756863 0 0 0 0 0.811765 0 0 0 0.7 0"/>
<feBlend mode="normal" in2="BackgroundImageFix" result="effect1_dropShadow"/>
<feBlend mode="normal" in="SourceGraphic" in2="effect1_dropShadow" result="shape"/>
</filter>
<linearGradient id="paint0_linear" x1="40.1279" y1="43.4775" x2="40.1279" y2="49.5295" gradientUnits="userSpaceOnUse">
<stop stop-color="#FF5A10"/>
<stop offset="1" stop-color="#FF9623"/>
</linearGradient>
<linearGradient id="paint1_linear" x1="47.9073" y1="43.4771" x2="47.9073" y2="49.5294" gradientUnits="userSpaceOnUse">
<stop stop-color="#FF5A10"/>
<stop offset="1" stop-color="#FF9623"/>
</linearGradient>
<linearGradient id="paint2_linear" x1="44.0961" y1="43.4768" x2="44.0961" y2="49.5293" gradientUnits="userSpaceOnUse">
<stop stop-color="#FF5A10"/>
<stop offset="1" stop-color="#FF9623"/>
</linearGradient>
<linearGradient id="paint3_linear" x1="41.8606" y1="52.3586" x2="41.8606" y2="53.8224" gradientUnits="userSpaceOnUse">
<stop stop-color="#FF5A10"/>
<stop offset="1" stop-color="#FF9623"/>
</linearGradient>
<linearGradient id="paint4_linear" x1="51.3456" y1="52.3586" x2="51.3456" y2="53.8224" gradientUnits="userSpaceOnUse">
<stop stop-color="#FF5A10"/>
<stop offset="1" stop-color="#FF9623"/>
</linearGradient>
<linearGradient id="paint5_linear" x1="40.4457" y1="55.4456" x2="40.4457" y2="56.9093" gradientUnits="userSpaceOnUse">
<stop stop-color="#FF5A10"/>
<stop offset="1" stop-color="#FF9623"/>
</linearGradient>
<linearGradient id="paint6_linear" x1="53.6417" y1="55.4456" x2="53.6417" y2="56.9093" gradientUnits="userSpaceOnUse">
<stop stop-color="#FF5A10"/>
<stop offset="1" stop-color="#FF9623"/>
</linearGradient>
<linearGradient id="paint7_linear" x1="47.2034" y1="55.4456" x2="47.2034" y2="56.9093" gradientUnits="userSpaceOnUse">
<stop stop-color="#FF5A10"/>
<stop offset="1" stop-color="#FF9623"/>
</linearGradient>
<linearGradient id="paint8_linear" x1="57.7986" y1="55.4456" x2="57.7986" y2="56.9093" gradientUnits="userSpaceOnUse">
<stop stop-color="#FF5A10"/>
<stop offset="1" stop-color="#FF9623"/>
</linearGradient>
<linearGradient id="paint9_linear" x1="53.1476" y1="45.6267" x2="53.1476" y2="47.0904" gradientUnits="userSpaceOnUse">
<stop stop-color="#FF5A10"/>
<stop offset="1" stop-color="#FF9623"/>
</linearGradient>
<linearGradient id="paint10_linear" x1="64.9485" y1="45.6267" x2="64.9485" y2="47.0904" gradientUnits="userSpaceOnUse">
<stop stop-color="#FF5A10"/>
<stop offset="1" stop-color="#FF9623"/>
</linearGradient>
<linearGradient id="paint11_linear" x1="67.1929" y1="48.8462" x2="67.1929" y2="50.3099" gradientUnits="userSpaceOnUse">
<stop stop-color="#FF5A10"/>
<stop offset="1" stop-color="#FF9623"/>
</linearGradient>
<linearGradient id="paint12_linear" x1="60.6555" y1="48.8462" x2="60.6555" y2="50.3099" gradientUnits="userSpaceOnUse">
<stop stop-color="#FF5A10"/>
<stop offset="1" stop-color="#FF9623"/>
</linearGradient>
<linearGradient id="paint13_linear" x1="54.5135" y1="48.8462" x2="54.5135" y2="50.3099" gradientUnits="userSpaceOnUse">
<stop stop-color="#FF5A10"/>
<stop offset="1" stop-color="#FF9623"/>
</linearGradient>
<linearGradient id="paint14_linear" x1="47.8889" y1="58.5061" x2="47.8889" y2="59.9694" gradientUnits="userSpaceOnUse">
<stop stop-color="#FF5A10"/>
<stop offset="1" stop-color="#FF9623"/>
</linearGradient>
<linearGradient id="paint15_linear" x1="41.2893" y1="58.5061" x2="41.2893" y2="59.9694" gradientUnits="userSpaceOnUse">
<stop stop-color="#FF5A10"/>
<stop offset="1" stop-color="#FF9623"/>
</linearGradient>
<linearGradient id="paint16_linear" x1="56.0696" y1="58.5061" x2="56.0696" y2="59.9694" gradientUnits="userSpaceOnUse">
<stop stop-color="#FF5A10"/>
<stop offset="1" stop-color="#FF9623"/>
</linearGradient>
<linearGradient id="paint17_linear" x1="66.2375" y1="54.7471" x2="66.2375" y2="56.2108" gradientUnits="userSpaceOnUse">
<stop stop-color="#FF5A10"/>
<stop offset="1" stop-color="#FF9623"/>
</linearGradient>
<linearGradient id="paint18_linear" x1="76.5943" y1="54.7471" x2="76.5943" y2="56.2108" gradientUnits="userSpaceOnUse">
<stop stop-color="#FF5A10"/>
<stop offset="1" stop-color="#FF9623"/>
</linearGradient>
<linearGradient id="paint19_linear" x1="71.0534" y1="54.7471" x2="71.0534" y2="56.2108" gradientUnits="userSpaceOnUse">
<stop stop-color="#FF5A10"/>
<stop offset="1" stop-color="#FF9623"/>
</linearGradient>
<linearGradient id="paint20_linear" x1="66.2375" y1="62.7217" x2="66.2375" y2="64.185" gradientUnits="userSpaceOnUse">
<stop stop-color="#FF5A10"/>
<stop offset="1" stop-color="#FF9623"/>
</linearGradient>
<linearGradient id="paint21_linear" x1="76.5943" y1="62.7217" x2="76.5943" y2="64.185" gradientUnits="userSpaceOnUse">
<stop stop-color="#FF5A10"/>
<stop offset="1" stop-color="#FF9623"/>
</linearGradient>
<linearGradient id="paint22_linear" x1="71.0534" y1="62.7217" x2="71.0534" y2="64.185" gradientUnits="userSpaceOnUse">
<stop stop-color="#FF5A10"/>
<stop offset="1" stop-color="#FF9623"/>
</linearGradient>
<linearGradient id="paint23_linear" x1="66.2375" y1="70.6963" x2="66.2375" y2="72.1596" gradientUnits="userSpaceOnUse">
<stop stop-color="#FF5A10"/>
<stop offset="1" stop-color="#FF9623"/>
</linearGradient>
<linearGradient id="paint24_linear" x1="76.5943" y1="70.6963" x2="76.5943" y2="72.1596" gradientUnits="userSpaceOnUse">
<stop stop-color="#FF5A10"/>
<stop offset="1" stop-color="#FF9623"/>
</linearGradient>
<linearGradient id="paint25_linear" x1="71.0534" y1="70.6963" x2="71.0534" y2="72.1596" gradientUnits="userSpaceOnUse">
<stop stop-color="#FF5A10"/>
<stop offset="1" stop-color="#FF9623"/>
</linearGradient>
<linearGradient id="paint26_linear" x1="59.9999" y1="31.0977" x2="59.9999" y2="81.0437" gradientUnits="userSpaceOnUse">
<stop stop-color="#FF5A10"/>
<stop offset="1" stop-color="#FF9623"/>
</linearGradient>
<linearGradient id="paint27_linear" x1="40.3965" y1="33.9065" x2="40.3965" y2="38.2015" gradientUnits="userSpaceOnUse">
<stop stop-color="#FF5A10"/>
<stop offset="1" stop-color="#FF9623"/>
</linearGradient>
<linearGradient id="paint28_linear" x1="45.8643" y1="33.9065" x2="45.8643" y2="38.2015" gradientUnits="userSpaceOnUse">
<stop stop-color="#FF5A10"/>
<stop offset="1" stop-color="#FF9623"/>
</linearGradient>
<linearGradient id="paint29_linear" x1="51.3321" y1="33.9065" x2="51.3321" y2="38.2015" gradientUnits="userSpaceOnUse">
<stop stop-color="#FF5A10"/>
<stop offset="1" stop-color="#FF9623"/>
</linearGradient>
<clipPath id="clip0">
<rect x="35" y="31" width="50" height="50" fill="white"/>
</clipPath>
</defs>
</svg>
