<svg width="120" height="120" viewBox="0 0 120 120" fill="none" xmlns="http://www.w3.org/2000/svg">
<g filter="url(#filter0_d)">
<path d="M10 22C10 13.1634 17.1634 6 26 6H94C102.837 6 110 13.1634 110 22V106H26C17.1634 106 10 98.8366 10 90V22Z" fill="white"/>
</g>
<g clip-path="url(#clip0)">
<path d="M52.7461 66.8217C52.6755 66.8016 52.6032 66.7903 52.5305 66.7864C53.6002 65.6621 54.259 64.1432 54.259 62.4725V57.3347C54.259 57.2877 54.2545 57.2419 54.2481 57.1968C54.2546 57.1041 54.259 57.0107 54.259 56.9164V53.6658C54.259 53.1264 53.8218 52.6892 53.2824 52.6892H46.7323C43.974 52.6892 41.7301 54.9333 41.7301 57.6915V62.4725C41.7301 64.1432 42.3888 65.6621 43.4586 66.7864C43.3859 66.7903 43.3137 66.8016 43.2432 66.8217C38.6282 67.2396 35 71.1293 35 75.8512V80.0235C35 80.5628 35.4372 81 35.9766 81H60.0124C60.5518 81 60.989 80.5628 60.989 80.0235V75.8512C60.989 71.1294 57.3609 67.2397 52.7461 66.8217ZM43.6832 58.9298V57.6914C43.6832 56.0101 45.0511 54.6422 46.7323 54.6422H52.3059V56.9163C52.3059 58.0611 51.3745 58.9924 50.2297 58.9924H43.6832V58.9298ZM43.6832 60.9456H50.2297C50.9887 60.9456 51.6991 60.7344 52.3059 60.368V62.4724C52.3059 64.8497 50.3718 66.7837 47.9945 66.7837C45.6173 66.7837 43.6832 64.8497 43.6832 62.4724V60.9456ZM50.12 68.737L47.9945 70.8625L45.869 68.737H50.12ZM59.0359 79.0469H36.9531V77.0938H41.0059C41.5452 77.0938 41.9824 76.6566 41.9824 76.1172C41.9824 75.5779 41.5452 75.1407 41.0059 75.1407H36.9888C37.3168 71.8481 39.8995 69.2113 43.166 68.796L47.304 72.934C47.4871 73.1171 47.7355 73.2201 47.9945 73.2201C48.2535 73.2201 48.502 73.1171 48.6851 72.934L52.823 68.796C56.3215 69.2407 59.0359 72.2339 59.0359 75.8512V79.0469Z" fill="black"/>
<path d="M52.7461 66.8217C52.6755 66.8016 52.6032 66.7903 52.5305 66.7864C53.6002 65.6621 54.259 64.1432 54.259 62.4725V57.3347C54.259 57.2877 54.2545 57.2419 54.2481 57.1968C54.2546 57.1041 54.259 57.0107 54.259 56.9164V53.6658C54.259 53.1264 53.8218 52.6892 53.2824 52.6892H46.7323C43.974 52.6892 41.7301 54.9333 41.7301 57.6915V62.4725C41.7301 64.1432 42.3888 65.6621 43.4586 66.7864C43.3859 66.7903 43.3137 66.8016 43.2432 66.8217C38.6282 67.2396 35 71.1293 35 75.8512V80.0235C35 80.5628 35.4372 81 35.9766 81H60.0124C60.5518 81 60.989 80.5628 60.989 80.0235V75.8512C60.989 71.1294 57.3609 67.2397 52.7461 66.8217ZM43.6832 58.9298V57.6914C43.6832 56.0101 45.0511 54.6422 46.7323 54.6422H52.3059V56.9163C52.3059 58.0611 51.3745 58.9924 50.2297 58.9924H43.6832V58.9298ZM43.6832 60.9456H50.2297C50.9887 60.9456 51.6991 60.7344 52.3059 60.368V62.4724C52.3059 64.8497 50.3718 66.7837 47.9945 66.7837C45.6173 66.7837 43.6832 64.8497 43.6832 62.4724V60.9456ZM50.12 68.737L47.9945 70.8625L45.869 68.737H50.12ZM59.0359 79.0469H36.9531V77.0938H41.0059C41.5452 77.0938 41.9824 76.6566 41.9824 76.1172C41.9824 75.5779 41.5452 75.1407 41.0059 75.1407H36.9888C37.3168 71.8481 39.8995 69.2113 43.166 68.796L47.304 72.934C47.4871 73.1171 47.7355 73.2201 47.9945 73.2201C48.2535 73.2201 48.502 73.1171 48.6851 72.934L52.823 68.796C56.3215 69.2407 59.0359 72.2339 59.0359 75.8512V79.0469Z" fill="url(#paint0_linear)"/>
<path d="M76.7571 45.1326C76.6865 45.1125 76.6142 45.1012 76.5413 45.0973C77.611 43.9729 78.2697 42.4541 78.2697 40.7834V35.6455C78.2697 35.5985 78.2652 35.5527 78.2589 35.5076C78.2653 35.4148 78.2697 35.3215 78.2697 35.2271V31.9766C78.2697 31.4372 77.8325 31 77.2932 31H70.7431C67.9848 31 65.7408 33.244 65.7408 36.0022V40.7833C65.7408 42.454 66.3995 43.9729 67.4692 45.0972C67.3965 45.1011 67.324 45.1124 67.2534 45.1325C62.6387 45.5506 59.0107 49.4403 59.0107 54.162V58.3342C59.0107 58.8735 59.4479 59.3107 59.9873 59.3107H67.8447C68.3841 59.3107 68.8213 58.8735 68.8213 58.3342C68.8213 57.7948 68.3841 57.3576 67.8447 57.3576H60.9639V54.1621C60.9639 50.5448 63.6782 47.5516 67.1767 47.1069L71.3146 51.2449C71.5054 51.4356 71.7553 51.531 72.0052 51.531C72.2551 51.531 72.5051 51.4356 72.6957 51.2449L76.8337 47.1069C80.3323 47.5517 83.0467 50.5448 83.0467 54.1621V57.3577H75.8526C75.3133 57.3577 74.8761 57.7949 74.8761 58.3343C74.8761 58.8736 75.3133 59.3108 75.8526 59.3108H84.0232C84.5626 59.3108 84.9998 58.8736 84.9998 58.3343V54.1621C84.9998 49.4404 81.3718 45.5507 76.7571 45.1326ZM72.0054 49.1733L69.8799 47.0479H74.1309L72.0054 49.1733ZM76.3167 40.7833C76.3167 43.1605 74.3826 45.0946 72.0054 45.0946C69.6281 45.0946 67.694 43.1606 67.694 40.7834V39.2564H74.2405C74.9995 39.2564 75.71 39.0452 76.3167 38.6789V40.7833ZM76.3167 35.2271C76.3167 36.372 75.3854 37.3033 74.2405 37.3033H67.694V37.2407V36.0022C67.694 34.321 69.0619 32.9531 70.7432 32.9531H76.3167V35.2271Z" fill="black"/>
<path d="M76.7571 45.1326C76.6865 45.1125 76.6142 45.1012 76.5413 45.0973C77.611 43.9729 78.2697 42.4541 78.2697 40.7834V35.6455C78.2697 35.5985 78.2652 35.5527 78.2589 35.5076C78.2653 35.4148 78.2697 35.3215 78.2697 35.2271V31.9766C78.2697 31.4372 77.8325 31 77.2932 31H70.7431C67.9848 31 65.7408 33.244 65.7408 36.0022V40.7833C65.7408 42.454 66.3995 43.9729 67.4692 45.0972C67.3965 45.1011 67.324 45.1124 67.2534 45.1325C62.6387 45.5506 59.0107 49.4403 59.0107 54.162V58.3342C59.0107 58.8735 59.4479 59.3107 59.9873 59.3107H67.8447C68.3841 59.3107 68.8213 58.8735 68.8213 58.3342C68.8213 57.7948 68.3841 57.3576 67.8447 57.3576H60.9639V54.1621C60.9639 50.5448 63.6782 47.5516 67.1767 47.1069L71.3146 51.2449C71.5054 51.4356 71.7553 51.531 72.0052 51.531C72.2551 51.531 72.5051 51.4356 72.6957 51.2449L76.8337 47.1069C80.3323 47.5517 83.0467 50.5448 83.0467 54.1621V57.3577H75.8526C75.3133 57.3577 74.8761 57.7949 74.8761 58.3343C74.8761 58.8736 75.3133 59.3108 75.8526 59.3108H84.0232C84.5626 59.3108 84.9998 58.8736 84.9998 58.3343V54.1621C84.9998 49.4404 81.3718 45.5507 76.7571 45.1326ZM72.0054 49.1733L69.8799 47.0479H74.1309L72.0054 49.1733ZM76.3167 40.7833C76.3167 43.1605 74.3826 45.0946 72.0054 45.0946C69.6281 45.0946 67.694 43.1606 67.694 40.7834V39.2564H74.2405C74.9995 39.2564 75.71 39.0452 76.3167 38.6789V40.7833ZM76.3167 35.2271C76.3167 36.372 75.3854 37.3033 74.2405 37.3033H67.694V37.2407V36.0022C67.694 34.321 69.0619 32.9531 70.7432 32.9531H76.3167V35.2271Z" fill="url(#paint1_linear)"/>
<path d="M72.6963 57.6436C72.5146 57.4619 72.2627 57.3574 72.0059 57.3574C71.748 57.3574 71.4971 57.4619 71.3154 57.6436C71.1328 57.8252 71.0293 58.0771 71.0293 58.334C71.0293 58.5918 71.1328 58.8428 71.3154 59.0244C71.4971 59.207 71.748 59.3105 72.0059 59.3105C72.2627 59.3105 72.5146 59.207 72.6963 59.0244C72.8779 58.8428 72.9824 58.5918 72.9824 58.334C72.9824 58.0771 72.8779 57.8252 72.6963 57.6436Z" fill="black"/>
<path d="M72.6963 57.6436C72.5146 57.4619 72.2627 57.3574 72.0059 57.3574C71.748 57.3574 71.4971 57.4619 71.3154 57.6436C71.1328 57.8252 71.0293 58.0771 71.0293 58.334C71.0293 58.5918 71.1328 58.8428 71.3154 59.0244C71.4971 59.207 71.748 59.3105 72.0059 59.3105C72.2627 59.3105 72.5146 59.207 72.6963 59.0244C72.8779 58.8428 72.9824 58.5918 72.9824 58.334C72.9824 58.0771 72.8779 57.8252 72.6963 57.6436Z" fill="url(#paint2_linear)"/>
<path d="M61.1138 44.6649L57.0297 40.5809V35.8828C57.0297 33.1904 54.8393 31 52.1469 31H39.8828C37.1904 31 35 33.1904 35 35.8828V44.4766C35 47.1689 37.1904 49.3594 39.8828 49.3594H52.1468C54.1657 49.3594 55.9263 48.1478 56.6649 46.332H60.4231C60.8181 46.332 61.1742 46.094 61.3254 45.7292C61.4766 45.3644 61.393 44.9442 61.1138 44.6649ZM55.9525 44.3789C55.4976 44.3789 55.1028 44.6931 55.0008 45.1365C54.6934 46.4729 53.5198 47.4062 52.1468 47.4062H39.8828C38.2674 47.4062 36.9531 46.092 36.9531 44.4766V35.8828C36.9531 34.2674 38.2674 32.9531 39.8828 32.9531H52.1468C53.7622 32.9531 55.0765 34.2674 55.0765 35.8828V40.9854C55.0765 41.2443 55.1794 41.4928 55.3625 41.6759L58.0655 44.3789H55.9525Z" fill="black"/>
<path d="M61.1138 44.6649L57.0297 40.5809V35.8828C57.0297 33.1904 54.8393 31 52.1469 31H39.8828C37.1904 31 35 33.1904 35 35.8828V44.4766C35 47.1689 37.1904 49.3594 39.8828 49.3594H52.1468C54.1657 49.3594 55.9263 48.1478 56.6649 46.332H60.4231C60.8181 46.332 61.1742 46.094 61.3254 45.7292C61.4766 45.3644 61.393 44.9442 61.1138 44.6649ZM55.9525 44.3789C55.4976 44.3789 55.1028 44.6931 55.0008 45.1365C54.6934 46.4729 53.5198 47.4062 52.1468 47.4062H39.8828C38.2674 47.4062 36.9531 46.092 36.9531 44.4766V35.8828C36.9531 34.2674 38.2674 32.9531 39.8828 32.9531H52.1468C53.7622 32.9531 55.0765 34.2674 55.0765 35.8828V40.9854C55.0765 41.2443 55.1794 41.4928 55.3625 41.6759L58.0655 44.3789H55.9525Z" fill="url(#paint3_linear)"/>
<path d="M80.1175 62.6406H67.8536C65.8346 62.6406 64.0741 63.8522 63.3354 65.668H59.5772C59.1823 65.668 58.8261 65.906 58.675 66.2708C58.5238 66.6356 58.6074 67.0558 58.8866 67.3351L62.9707 71.4191V76.1172C62.9707 78.8096 65.1611 81 67.8535 81H80.1175C82.8099 81 85.0003 78.8096 85.0003 76.1172V67.5234C85.0003 64.8311 82.8099 62.6406 80.1175 62.6406ZM83.0472 76.1172C83.0472 77.7326 81.733 79.0469 80.1175 79.0469H67.8536C66.2381 79.0469 64.9239 77.7326 64.9239 76.1172V71.0146C64.9239 70.7557 64.821 70.5072 64.6378 70.3241L61.9348 67.6211H64.0478C64.5028 67.6211 64.8975 67.3069 64.9996 66.8635C65.307 65.5271 66.4805 64.5938 67.8536 64.5938H80.1175C81.733 64.5938 83.0472 65.908 83.0472 67.5234V76.1172Z" fill="black"/>
<path d="M80.1175 62.6406H67.8536C65.8346 62.6406 64.0741 63.8522 63.3354 65.668H59.5772C59.1823 65.668 58.8261 65.906 58.675 66.2708C58.5238 66.6356 58.6074 67.0558 58.8866 67.3351L62.9707 71.4191V76.1172C62.9707 78.8096 65.1611 81 67.8535 81H80.1175C82.8099 81 85.0003 78.8096 85.0003 76.1172V67.5234C85.0003 64.8311 82.8099 62.6406 80.1175 62.6406ZM83.0472 76.1172C83.0472 77.7326 81.733 79.0469 80.1175 79.0469H67.8536C66.2381 79.0469 64.9239 77.7326 64.9239 76.1172V71.0146C64.9239 70.7557 64.821 70.5072 64.6378 70.3241L61.9348 67.6211H64.0478C64.5028 67.6211 64.8975 67.3069 64.9996 66.8635C65.307 65.5271 66.4805 64.5938 67.8536 64.5938H80.1175C81.733 64.5938 83.0472 65.908 83.0472 67.5234V76.1172Z" fill="url(#paint4_linear)"/>
<path d="M78.3747 69.2218C77.9934 68.8405 77.3751 68.8405 76.9937 69.2218L74.3977 71.8178L73.1906 70.6107C72.8093 70.2293 72.1909 70.2293 71.8094 70.6107C71.4281 70.992 71.4281 71.6104 71.8094 71.9918L73.7071 73.8895C73.8978 74.0802 74.1477 74.1755 74.3976 74.1755C74.6475 74.1755 74.8975 74.0802 75.0882 73.8895L78.3747 70.603C78.756 70.2216 78.756 69.6032 78.3747 69.2218Z" fill="black"/>
<path d="M78.3747 69.2218C77.9934 68.8405 77.3751 68.8405 76.9937 69.2218L74.3977 71.8178L73.1906 70.6107C72.8093 70.2293 72.1909 70.2293 71.8094 70.6107C71.4281 70.992 71.4281 71.6104 71.8094 71.9918L73.7071 73.8895C73.8978 74.0802 74.1477 74.1755 74.3976 74.1755C74.6475 74.1755 74.8975 74.0802 75.0882 73.8895L78.3747 70.603C78.756 70.2216 78.756 69.6032 78.3747 69.2218Z" fill="url(#paint5_linear)"/>
<path d="M50.454 37.4713C50.3386 35.7968 48.9888 34.447 47.3143 34.3316C46.3647 34.2662 45.4597 34.5866 44.7663 35.2338C44.0826 35.872 43.6904 36.7744 43.6904 37.7093C43.6905 38.2488 44.1277 38.686 44.6671 38.686C45.2064 38.686 45.6437 38.2488 45.6437 37.7094C45.6437 37.3079 45.8054 36.9359 46.0991 36.6617C46.3924 36.3878 46.7767 36.2519 47.1801 36.2802C47.887 36.3289 48.4568 36.8988 48.5056 37.6057C48.5549 38.3204 48.0863 38.9521 47.3915 39.1076C46.631 39.2777 46.0998 39.9389 46.0998 40.7155V41.2365C46.0998 41.7758 46.537 42.213 47.0764 42.213C47.6157 42.213 48.0529 41.7758 48.0529 41.2365V40.9523C49.566 40.5009 50.5646 39.0745 50.454 37.4713Z" fill="black"/>
<path d="M50.454 37.4713C50.3386 35.7968 48.9888 34.447 47.3143 34.3316C46.3647 34.2662 45.4597 34.5866 44.7663 35.2338C44.0826 35.872 43.6904 36.7744 43.6904 37.7093C43.6905 38.2488 44.1277 38.686 44.6671 38.686C45.2064 38.686 45.6437 38.2488 45.6437 37.7094C45.6437 37.3079 45.8054 36.9359 46.0991 36.6617C46.3924 36.3878 46.7767 36.2519 47.1801 36.2802C47.887 36.3289 48.4568 36.8988 48.5056 37.6057C48.5549 38.3204 48.0863 38.9521 47.3915 39.1076C46.631 39.2777 46.0998 39.9389 46.0998 40.7155V41.2365C46.0998 41.7758 46.537 42.213 47.0764 42.213C47.6157 42.213 48.0529 41.7758 48.0529 41.2365V40.9523C49.566 40.5009 50.5646 39.0745 50.454 37.4713Z" fill="url(#paint6_linear)"/>
<path d="M47.7676 44.2832C47.5859 44.1016 47.334 43.9971 47.0771 43.9971C46.8193 43.9971 46.5684 44.1016 46.3867 44.2832C46.2041 44.4648 46.1006 44.7168 46.1006 44.9736C46.1006 45.2305 46.2041 45.4824 46.3867 45.6641C46.5684 45.8457 46.8193 45.9502 47.0771 45.9502C47.334 45.9502 47.5859 45.8457 47.7676 45.6641C47.9492 45.4824 48.0537 45.2305 48.0537 44.9736C48.0537 44.7168 47.9492 44.4648 47.7676 44.2832Z" fill="black"/>
<path d="M47.7676 44.2832C47.5859 44.1016 47.334 43.9971 47.0771 43.9971C46.8193 43.9971 46.5684 44.1016 46.3867 44.2832C46.2041 44.4648 46.1006 44.7168 46.1006 44.9736C46.1006 45.2305 46.2041 45.4824 46.3867 45.6641C46.5684 45.8457 46.8193 45.9502 47.0771 45.9502C47.334 45.9502 47.5859 45.8457 47.7676 45.6641C47.9492 45.4824 48.0537 45.2305 48.0537 44.9736C48.0537 44.7168 47.9492 44.4648 47.7676 44.2832Z" fill="url(#paint7_linear)"/>
<path d="M45.6025 75.4268C45.4209 75.2451 45.1689 75.1406 44.9121 75.1406C44.6553 75.1406 44.4033 75.2451 44.2217 75.4268C44.04 75.6084 43.9355 75.8604 43.9355 76.1172C43.9355 76.374 44.04 76.626 44.2217 76.8076C44.4033 76.9893 44.6553 77.0938 44.9121 77.0938C45.1689 77.0938 45.4209 76.9893 45.6025 76.8076C45.7842 76.626 45.8887 76.374 45.8887 76.1172C45.8887 75.8604 45.7842 75.6084 45.6025 75.4268Z" fill="black"/>
<path d="M45.6025 75.4268C45.4209 75.2451 45.1689 75.1406 44.9121 75.1406C44.6553 75.1406 44.4033 75.2451 44.2217 75.4268C44.04 75.6084 43.9355 75.8604 43.9355 76.1172C43.9355 76.374 44.04 76.626 44.2217 76.8076C44.4033 76.9893 44.6553 77.0938 44.9121 77.0938C45.1689 77.0938 45.4209 76.9893 45.6025 76.8076C45.7842 76.626 45.8887 76.374 45.8887 76.1172C45.8887 75.8604 45.7842 75.6084 45.6025 75.4268Z" fill="url(#paint8_linear)"/>
</g>
<defs>
<filter id="filter0_d" x="0" y="0" width="120" height="120" filterUnits="userSpaceOnUse" color-interpolation-filters="sRGB">
<feFlood flood-opacity="0" result="BackgroundImageFix"/>
<feColorMatrix in="SourceAlpha" type="matrix" values="0 0 0 0 0 0 0 0 0 0 0 0 0 0 0 0 0 0 127 0"/>
<feOffset dy="4"/>
<feGaussianBlur stdDeviation="5"/>
<feColorMatrix type="matrix" values="0 0 0 0 0.709804 0 0 0 0 0.756863 0 0 0 0 0.811765 0 0 0 0.7 0"/>
<feBlend mode="normal" in2="BackgroundImageFix" result="effect1_dropShadow"/>
<feBlend mode="normal" in="SourceGraphic" in2="effect1_dropShadow" result="shape"/>
</filter>
<linearGradient id="paint0_linear" x1="47.9945" y1="52.6892" x2="47.9945" y2="81" gradientUnits="userSpaceOnUse">
<stop stop-color="#FF5A10"/>
<stop offset="1" stop-color="#FF9623"/>
</linearGradient>
<linearGradient id="paint1_linear" x1="72.0053" y1="31" x2="72.0053" y2="59.3108" gradientUnits="userSpaceOnUse">
<stop stop-color="#FF5A10"/>
<stop offset="1" stop-color="#FF9623"/>
</linearGradient>
<linearGradient id="paint2_linear" x1="72.0059" y1="57.3574" x2="72.0059" y2="59.3105" gradientUnits="userSpaceOnUse">
<stop stop-color="#FF5A10"/>
<stop offset="1" stop-color="#FF9623"/>
</linearGradient>
<linearGradient id="paint3_linear" x1="48.1999" y1="31" x2="48.1999" y2="49.3594" gradientUnits="userSpaceOnUse">
<stop stop-color="#FF5A10"/>
<stop offset="1" stop-color="#FF9623"/>
</linearGradient>
<linearGradient id="paint4_linear" x1="71.8005" y1="62.6406" x2="71.8005" y2="81" gradientUnits="userSpaceOnUse">
<stop stop-color="#FF5A10"/>
<stop offset="1" stop-color="#FF9623"/>
</linearGradient>
<linearGradient id="paint5_linear" x1="75.0921" y1="68.9358" x2="75.0921" y2="74.1755" gradientUnits="userSpaceOnUse">
<stop stop-color="#FF5A10"/>
<stop offset="1" stop-color="#FF9623"/>
</linearGradient>
<linearGradient id="paint6_linear" x1="47.0764" y1="34.3232" x2="47.0764" y2="42.213" gradientUnits="userSpaceOnUse">
<stop stop-color="#FF5A10"/>
<stop offset="1" stop-color="#FF9623"/>
</linearGradient>
<linearGradient id="paint7_linear" x1="47.0771" y1="43.9971" x2="47.0771" y2="45.9502" gradientUnits="userSpaceOnUse">
<stop stop-color="#FF5A10"/>
<stop offset="1" stop-color="#FF9623"/>
</linearGradient>
<linearGradient id="paint8_linear" x1="44.9121" y1="75.1406" x2="44.9121" y2="77.0938" gradientUnits="userSpaceOnUse">
<stop stop-color="#FF5A10"/>
<stop offset="1" stop-color="#FF9623"/>
</linearGradient>
<clipPath id="clip0">
<rect x="35" y="31" width="50" height="50" fill="white"/>
</clipPath>
</defs>
</svg>
