<svg width="120" height="120" viewBox="0 0 120 120" fill="none" xmlns="http://www.w3.org/2000/svg">
<g filter="url(#filter0_d)">
<path d="M10 22C10 13.1634 17.1634 6 26 6H94C102.837 6 110 13.1634 110 22V106H26C17.1634 106 10 98.8366 10 90V22Z" fill="white"/>
</g>
<g clip-path="url(#clip0)">
<path d="M80.8323 55.2428V54.3346C80.8323 53.8746 80.4593 53.5015 79.9989 53.5015C79.5388 53.5015 79.1658 53.8746 79.1658 54.3346V55.2428C77.0716 55.6002 75.4314 57.2405 75.0744 59.3346H64.9247C64.5673 57.2405 62.9271 55.6002 60.8333 55.2428V49.3349H69.9995C70.9196 49.3342 71.665 48.5884 71.6661 47.6684V39.3356H74.1657C74.6262 39.3356 74.9992 38.9625 74.9992 38.5021C74.9992 38.0421 74.6262 37.669 74.1657 37.669H71.6661V32.669C71.665 31.7493 70.9196 31.0036 69.9995 31.0024H50.0005C49.0805 31.0036 48.3347 31.7493 48.334 32.669V37.669H45.8339C45.3739 37.669 45.0009 38.0421 45.0009 38.5021C45.0009 38.9625 45.3739 39.3356 45.8339 39.3356H48.334V47.6684C48.3347 48.5884 49.0805 49.3342 50.0005 49.3349H59.1668V55.2428C57.0726 55.6002 55.4324 57.2405 55.0753 59.3346H44.9257C44.5687 57.2405 42.9284 55.6002 40.8343 55.2428V54.3346C40.8343 53.8746 40.4612 53.5015 40.0012 53.5015C39.5408 53.5015 39.1677 53.8746 39.1677 54.3346V55.2428C36.7623 55.6464 35 57.7287 35 60.1677C35 62.6071 36.7623 64.689 39.1677 65.0926V66.0008C39.1677 66.4609 39.5408 66.8339 40.0012 66.8339C40.4612 66.8339 40.8343 66.4609 40.8343 66.0008V65.0926C42.9284 64.7352 44.5687 63.095 44.9257 61.0012H55.0753C55.4324 63.095 57.0726 64.7352 59.1668 65.0926V66.8339H53.3336C51.9535 66.8355 50.8355 67.9539 50.834 69.334V71.0005H48.334C47.4139 71.0013 46.6682 71.747 46.6674 72.6671V76.0002H45.8339C45.3739 76.0002 45.0009 76.3732 45.0009 76.8336C45.0009 77.2937 45.3739 77.6667 45.8339 77.6667H46.6674V79.3333C46.6682 80.2533 47.4139 80.9991 48.334 80.9998H55.0002C55.9202 80.9991 56.666 80.2533 56.6667 79.3333V72.6671C56.666 71.747 55.9202 71.0013 55.0002 71.0005H52.5005V69.334C52.5009 68.8739 52.8736 68.5013 53.3336 68.5005H66.6664C67.1265 68.5013 67.4991 68.8739 67.4995 69.334V71.0005H64.9999C64.0798 71.0013 63.3341 71.747 63.3333 72.6671V79.3333C63.3341 80.2533 64.0798 80.9991 64.9999 80.9998H71.6661C72.5862 80.9991 73.3319 80.2533 73.3327 79.3333V77.6667H74.1657C74.6262 77.6667 74.9992 77.2937 74.9992 76.8336C74.9992 76.3732 74.6262 76.0002 74.1657 76.0002H73.3327V72.6671C73.3319 71.747 72.5862 71.0013 71.6661 71.0005H69.1661V69.334C69.1646 67.9539 68.0461 66.8355 66.6664 66.8339H60.8333V65.0926C62.9271 64.7352 64.5673 63.095 64.9247 61.0012H75.0744C75.4314 63.095 77.0716 64.7352 79.1658 65.0926V66.0008C79.1658 66.4609 79.5388 66.8339 79.9989 66.8339C80.4593 66.8339 80.8323 66.4609 80.8323 66.0008V65.0926C83.2378 64.689 85.0001 62.6071 85.0001 60.1677C85.0001 57.7287 83.2378 55.6464 80.8323 55.2428ZM50.0005 32.669H69.9995L69.9999 38.4998L69.9995 38.5021L69.9999 38.5044L70.0007 47.6684H50.0005V32.669ZM55.0013 79.3333H48.334V72.6671H55.0002L55.0013 79.3333ZM71.6661 79.3333H64.9999V72.6671H71.6661V79.3333ZM40.0012 63.5008C38.1603 63.5008 36.6677 62.0086 36.6677 60.1677C36.6677 58.3268 38.1603 56.8346 40.0012 56.8346C41.8421 56.8346 43.3343 58.3268 43.3343 60.1677C43.332 62.0078 41.8409 63.4989 40.0012 63.5008ZM59.9998 63.5008C58.159 63.5008 56.6667 62.0086 56.6667 60.1677C56.6667 58.3268 58.159 56.8346 59.9998 56.8346C61.8407 56.8346 63.3333 58.3268 63.3333 60.1677C63.331 62.0078 61.84 63.4989 59.9998 63.5008ZM79.9989 63.5008C78.158 63.5008 76.6658 62.0086 76.6658 60.1677C76.6658 58.3268 78.158 56.8346 79.9989 56.8346C81.8398 56.8346 83.332 58.3268 83.332 60.1677C83.3301 62.0078 81.839 63.4989 79.9989 63.5008Z" fill="black"/>
<path d="M80.8323 55.2428V54.3346C80.8323 53.8746 80.4593 53.5015 79.9989 53.5015C79.5388 53.5015 79.1658 53.8746 79.1658 54.3346V55.2428C77.0716 55.6002 75.4314 57.2405 75.0744 59.3346H64.9247C64.5673 57.2405 62.9271 55.6002 60.8333 55.2428V49.3349H69.9995C70.9196 49.3342 71.665 48.5884 71.6661 47.6684V39.3356H74.1657C74.6262 39.3356 74.9992 38.9625 74.9992 38.5021C74.9992 38.0421 74.6262 37.669 74.1657 37.669H71.6661V32.669C71.665 31.7493 70.9196 31.0036 69.9995 31.0024H50.0005C49.0805 31.0036 48.3347 31.7493 48.334 32.669V37.669H45.8339C45.3739 37.669 45.0009 38.0421 45.0009 38.5021C45.0009 38.9625 45.3739 39.3356 45.8339 39.3356H48.334V47.6684C48.3347 48.5884 49.0805 49.3342 50.0005 49.3349H59.1668V55.2428C57.0726 55.6002 55.4324 57.2405 55.0753 59.3346H44.9257C44.5687 57.2405 42.9284 55.6002 40.8343 55.2428V54.3346C40.8343 53.8746 40.4612 53.5015 40.0012 53.5015C39.5408 53.5015 39.1677 53.8746 39.1677 54.3346V55.2428C36.7623 55.6464 35 57.7287 35 60.1677C35 62.6071 36.7623 64.689 39.1677 65.0926V66.0008C39.1677 66.4609 39.5408 66.8339 40.0012 66.8339C40.4612 66.8339 40.8343 66.4609 40.8343 66.0008V65.0926C42.9284 64.7352 44.5687 63.095 44.9257 61.0012H55.0753C55.4324 63.095 57.0726 64.7352 59.1668 65.0926V66.8339H53.3336C51.9535 66.8355 50.8355 67.9539 50.834 69.334V71.0005H48.334C47.4139 71.0013 46.6682 71.747 46.6674 72.6671V76.0002H45.8339C45.3739 76.0002 45.0009 76.3732 45.0009 76.8336C45.0009 77.2937 45.3739 77.6667 45.8339 77.6667H46.6674V79.3333C46.6682 80.2533 47.4139 80.9991 48.334 80.9998H55.0002C55.9202 80.9991 56.666 80.2533 56.6667 79.3333V72.6671C56.666 71.747 55.9202 71.0013 55.0002 71.0005H52.5005V69.334C52.5009 68.8739 52.8736 68.5013 53.3336 68.5005H66.6664C67.1265 68.5013 67.4991 68.8739 67.4995 69.334V71.0005H64.9999C64.0798 71.0013 63.3341 71.747 63.3333 72.6671V79.3333C63.3341 80.2533 64.0798 80.9991 64.9999 80.9998H71.6661C72.5862 80.9991 73.3319 80.2533 73.3327 79.3333V77.6667H74.1657C74.6262 77.6667 74.9992 77.2937 74.9992 76.8336C74.9992 76.3732 74.6262 76.0002 74.1657 76.0002H73.3327V72.6671C73.3319 71.747 72.5862 71.0013 71.6661 71.0005H69.1661V69.334C69.1646 67.9539 68.0461 66.8355 66.6664 66.8339H60.8333V65.0926C62.9271 64.7352 64.5673 63.095 64.9247 61.0012H75.0744C75.4314 63.095 77.0716 64.7352 79.1658 65.0926V66.0008C79.1658 66.4609 79.5388 66.8339 79.9989 66.8339C80.4593 66.8339 80.8323 66.4609 80.8323 66.0008V65.0926C83.2378 64.689 85.0001 62.6071 85.0001 60.1677C85.0001 57.7287 83.2378 55.6464 80.8323 55.2428ZM50.0005 32.669H69.9995L69.9999 38.4998L69.9995 38.5021L69.9999 38.5044L70.0007 47.6684H50.0005V32.669ZM55.0013 79.3333H48.334V72.6671H55.0002L55.0013 79.3333ZM71.6661 79.3333H64.9999V72.6671H71.6661V79.3333ZM40.0012 63.5008C38.1603 63.5008 36.6677 62.0086 36.6677 60.1677C36.6677 58.3268 38.1603 56.8346 40.0012 56.8346C41.8421 56.8346 43.3343 58.3268 43.3343 60.1677C43.332 62.0078 41.8409 63.4989 40.0012 63.5008ZM59.9998 63.5008C58.159 63.5008 56.6667 62.0086 56.6667 60.1677C56.6667 58.3268 58.159 56.8346 59.9998 56.8346C61.8407 56.8346 63.3333 58.3268 63.3333 60.1677C63.331 62.0078 61.84 63.4989 59.9998 63.5008ZM79.9989 63.5008C78.158 63.5008 76.6658 62.0086 76.6658 60.1677C76.6658 58.3268 78.158 56.8346 79.9989 56.8346C81.8398 56.8346 83.332 58.3268 83.332 60.1677C83.3301 62.0078 81.839 63.4989 79.9989 63.5008Z" fill="url(#paint0_linear)"/>
<path d="M52.5005 36.0025H58.3332C58.7936 36.0025 59.1667 35.6294 59.1667 35.169C59.1667 34.709 58.7936 34.3359 58.3332 34.3359H52.5005C52.0401 34.3359 51.667 34.709 51.667 35.169C51.667 35.6294 52.0401 36.0025 52.5005 36.0025Z" fill="black"/>
<path d="M52.5005 36.0025H58.3332C58.7936 36.0025 59.1667 35.6294 59.1667 35.169C59.1667 34.709 58.7936 34.3359 58.3332 34.3359H52.5005C52.0401 34.3359 51.667 34.709 51.667 35.169C51.667 35.6294 52.0401 36.0025 52.5005 36.0025Z" fill="url(#paint1_linear)"/>
<path d="M52.5005 39.3355H67.4995C67.9599 39.3355 68.3329 38.9624 68.3329 38.502C68.3329 38.042 67.9599 37.6689 67.4995 37.6689H52.5005C52.0401 37.6689 51.667 38.042 51.667 38.502C51.667 38.9624 52.0401 39.3355 52.5005 39.3355Z" fill="black"/>
<path d="M52.5005 39.3355H67.4995C67.9599 39.3355 68.3329 38.9624 68.3329 38.502C68.3329 38.042 67.9599 37.6689 67.4995 37.6689H52.5005C52.0401 37.6689 51.667 38.042 51.667 38.502C51.667 38.9624 52.0401 39.3355 52.5005 39.3355Z" fill="url(#paint2_linear)"/>
<path d="M52.5005 42.6687H64.1663C64.6268 42.6687 64.9998 42.2957 64.9998 41.8353C64.9998 41.3753 64.6268 41.0022 64.1663 41.0022H52.5005C52.0401 41.0022 51.667 41.3753 51.667 41.8353C51.667 42.2957 52.0401 42.6687 52.5005 42.6687Z" fill="black"/>
<path d="M52.5005 42.6687H64.1663C64.6268 42.6687 64.9998 42.2957 64.9998 41.8353C64.9998 41.3753 64.6268 41.0022 64.1663 41.0022H52.5005C52.0401 41.0022 51.667 41.3753 51.667 41.8353C51.667 42.2957 52.0401 42.6687 52.5005 42.6687Z" fill="url(#paint3_linear)"/>
<path d="M55.8336 44.3352H52.5005C52.0401 44.3352 51.667 44.7083 51.667 45.1683C51.667 45.6287 52.0401 46.0018 52.5005 46.0018H55.8336C56.2936 46.0018 56.6667 45.6287 56.6667 45.1683C56.6667 44.7083 56.2936 44.3352 55.8336 44.3352Z" fill="black"/>
<path d="M55.8336 44.3352H52.5005C52.0401 44.3352 51.667 44.7083 51.667 45.1683C51.667 45.6287 52.0401 46.0018 52.5005 46.0018H55.8336C56.2936 46.0018 56.6667 45.6287 56.6667 45.1683C56.6667 44.7083 56.2936 44.3352 55.8336 44.3352Z" fill="url(#paint4_linear)"/>
<path d="M40.0014 41.8351C40.4615 41.8351 40.8345 41.4621 40.8345 41.0021V40.1686C40.8353 39.7086 41.208 39.3359 41.668 39.3355H42.5011C42.9615 39.3355 43.3345 38.9624 43.3345 38.502C43.3345 38.042 42.9615 37.6689 42.5011 37.6689H41.668C40.2879 37.6705 39.1695 38.7885 39.168 40.1686V41.0021C39.168 41.4621 39.541 41.8351 40.0014 41.8351Z" fill="black"/>
<path d="M40.0014 41.8351C40.4615 41.8351 40.8345 41.4621 40.8345 41.0021V40.1686C40.8353 39.7086 41.208 39.3359 41.668 39.3355H42.5011C42.9615 39.3355 43.3345 38.9624 43.3345 38.502C43.3345 38.042 42.9615 37.6689 42.5011 37.6689H41.668C40.2879 37.6705 39.1695 38.7885 39.168 40.1686V41.0021C39.168 41.4621 39.541 41.8351 40.0014 41.8351Z" fill="url(#paint5_linear)"/>
<path d="M40.0014 46.8354C40.4615 46.8354 40.8345 46.462 40.8345 46.002V44.3354C40.8345 43.875 40.4615 43.502 40.0014 43.502C39.541 43.502 39.168 43.875 39.168 44.3354V46.002C39.168 46.462 39.541 46.8354 40.0014 46.8354Z" fill="black"/>
<path d="M40.0014 46.8354C40.4615 46.8354 40.8345 46.462 40.8345 46.002V44.3354C40.8345 43.875 40.4615 43.502 40.0014 43.502C39.541 43.502 39.168 43.875 39.168 44.3354V46.002C39.168 46.462 39.541 46.8354 40.0014 46.8354Z" fill="url(#paint6_linear)"/>
<path d="M40.0014 51.8351C40.4615 51.8351 40.8345 51.462 40.8345 51.0016V49.335C40.8345 48.875 40.4615 48.502 40.0014 48.502C39.541 48.502 39.168 48.875 39.168 49.335V51.0016C39.168 51.462 39.541 51.8351 40.0014 51.8351Z" fill="black"/>
<path d="M40.0014 51.8351C40.4615 51.8351 40.8345 51.462 40.8345 51.0016V49.335C40.8345 48.875 40.4615 48.502 40.0014 48.502C39.541 48.502 39.168 48.875 39.168 49.335V51.0016C39.168 51.462 39.541 51.8351 40.0014 51.8351Z" fill="url(#paint7_linear)"/>
<path d="M77.4995 39.3355H78.3326C78.7926 39.3359 79.1653 39.7086 79.166 40.1686V41.0021C79.166 41.4621 79.5391 41.8351 79.9991 41.8351C80.4595 41.8351 80.8326 41.4621 80.8326 41.0021V40.1686C80.8311 38.7885 79.7127 37.6705 78.3326 37.6689H77.4995C77.0391 37.6689 76.666 38.042 76.666 38.502C76.666 38.9624 77.0391 39.3355 77.4995 39.3355Z" fill="black"/>
<path d="M77.4995 39.3355H78.3326C78.7926 39.3359 79.1653 39.7086 79.166 40.1686V41.0021C79.166 41.4621 79.5391 41.8351 79.9991 41.8351C80.4595 41.8351 80.8326 41.4621 80.8326 41.0021V40.1686C80.8311 38.7885 79.7127 37.6705 78.3326 37.6689H77.4995C77.0391 37.6689 76.666 38.042 76.666 38.502C76.666 38.9624 77.0391 39.3355 77.4995 39.3355Z" fill="url(#paint8_linear)"/>
<path d="M80.8326 44.3354C80.8326 43.875 80.4595 43.502 79.9991 43.502C79.5391 43.502 79.166 43.875 79.166 44.3354V46.002C79.166 46.462 79.5391 46.8354 79.9991 46.8354C80.4595 46.8354 80.8326 46.462 80.8326 46.002V44.3354Z" fill="black"/>
<path d="M80.8326 44.3354C80.8326 43.875 80.4595 43.502 79.9991 43.502C79.5391 43.502 79.166 43.875 79.166 44.3354V46.002C79.166 46.462 79.5391 46.8354 79.9991 46.8354C80.4595 46.8354 80.8326 46.462 80.8326 46.002V44.3354Z" fill="url(#paint9_linear)"/>
<path d="M79.9991 48.502C79.5391 48.502 79.166 48.875 79.166 49.335V51.0016C79.166 51.462 79.5391 51.8351 79.9991 51.8351C80.4595 51.8351 80.8326 51.462 80.8326 51.0016V49.335C80.8326 48.875 80.4595 48.502 79.9991 48.502Z" fill="black"/>
<path d="M79.9991 48.502C79.5391 48.502 79.166 48.875 79.166 49.335V51.0016C79.166 51.462 79.5391 51.8351 79.9991 51.8351C80.4595 51.8351 80.8326 51.462 80.8326 51.0016V49.335C80.8326 48.875 80.4595 48.502 79.9991 48.502Z" fill="url(#paint10_linear)"/>
<path d="M39.168 75.167C39.1695 76.5467 40.2879 77.6652 41.668 77.6667H42.5011C42.9615 77.6667 43.3345 77.2936 43.3345 76.8336C43.3345 76.3732 42.9615 76.0001 42.5011 76.0001H41.668C41.208 75.9997 40.8353 75.6271 40.8345 75.167V74.3336C40.8345 73.8735 40.4615 73.5005 40.0014 73.5005C39.541 73.5005 39.168 73.8735 39.168 74.3336V75.167Z" fill="black"/>
<path d="M39.168 75.167C39.1695 76.5467 40.2879 77.6652 41.668 77.6667H42.5011C42.9615 77.6667 43.3345 77.2936 43.3345 76.8336C43.3345 76.3732 42.9615 76.0001 42.5011 76.0001H41.668C41.208 75.9997 40.8353 75.6271 40.8345 75.167V74.3336C40.8345 73.8735 40.4615 73.5005 40.0014 73.5005C39.541 73.5005 39.168 73.8735 39.168 74.3336V75.167Z" fill="url(#paint11_linear)"/>
<path d="M40.0014 71.8342C40.4615 71.8342 40.8345 71.4608 40.8345 71.0008V69.3342C40.8345 68.8738 40.4615 68.5007 40.0014 68.5007C39.541 68.5007 39.168 68.8738 39.168 69.3342V71.0008C39.168 71.4608 39.541 71.8342 40.0014 71.8342Z" fill="black"/>
<path d="M40.0014 71.8342C40.4615 71.8342 40.8345 71.4608 40.8345 71.0008V69.3342C40.8345 68.8738 40.4615 68.5007 40.0014 68.5007C39.541 68.5007 39.168 68.8738 39.168 69.3342V71.0008C39.168 71.4608 39.541 71.8342 40.0014 71.8342Z" fill="url(#paint12_linear)"/>
<path d="M79.166 75.167C79.1653 75.6271 78.7926 75.9997 78.3326 76.0001H77.4995C77.0391 76.0001 76.666 76.3732 76.666 76.8336C76.666 77.2936 77.0391 77.6667 77.4995 77.6667H78.3326C79.7127 77.6652 80.8311 76.5467 80.8326 75.167V74.3336C80.8326 73.8735 80.4595 73.5005 79.9991 73.5005C79.5391 73.5005 79.166 73.8735 79.166 74.3336V75.167Z" fill="black"/>
<path d="M79.166 75.167C79.1653 75.6271 78.7926 75.9997 78.3326 76.0001H77.4995C77.0391 76.0001 76.666 76.3732 76.666 76.8336C76.666 77.2936 77.0391 77.6667 77.4995 77.6667H78.3326C79.7127 77.6652 80.8311 76.5467 80.8326 75.167V74.3336C80.8326 73.8735 80.4595 73.5005 79.9991 73.5005C79.5391 73.5005 79.166 73.8735 79.166 74.3336V75.167Z" fill="url(#paint13_linear)"/>
<path d="M79.9991 71.8342C80.4595 71.8342 80.8326 71.4608 80.8326 71.0008V69.3342C80.8326 68.8738 80.4595 68.5007 79.9991 68.5007C79.5391 68.5007 79.166 68.8738 79.166 69.3342V71.0008C79.166 71.4608 79.5391 71.8342 79.9991 71.8342Z" fill="black"/>
<path d="M79.9991 71.8342C80.4595 71.8342 80.8326 71.4608 80.8326 71.0008V69.3342C80.8326 68.8738 80.4595 68.5007 79.9991 68.5007C79.5391 68.5007 79.166 68.8738 79.166 69.3342V71.0008C79.166 71.4608 79.5391 71.8342 79.9991 71.8342Z" fill="url(#paint14_linear)"/>
</g>
<defs>
<filter id="filter0_d" x="0" y="0" width="120" height="120" filterUnits="userSpaceOnUse" color-interpolation-filters="sRGB">
<feFlood flood-opacity="0" result="BackgroundImageFix"/>
<feColorMatrix in="SourceAlpha" type="matrix" values="0 0 0 0 0 0 0 0 0 0 0 0 0 0 0 0 0 0 127 0"/>
<feOffset dy="4"/>
<feGaussianBlur stdDeviation="5"/>
<feColorMatrix type="matrix" values="0 0 0 0 0.709804 0 0 0 0 0.756863 0 0 0 0 0.811765 0 0 0 0.7 0"/>
<feBlend mode="normal" in2="BackgroundImageFix" result="effect1_dropShadow"/>
<feBlend mode="normal" in="SourceGraphic" in2="effect1_dropShadow" result="shape"/>
</filter>
<linearGradient id="paint0_linear" x1="60" y1="31.0024" x2="60" y2="80.9998" gradientUnits="userSpaceOnUse">
<stop stop-color="#FF5A10"/>
<stop offset="1" stop-color="#FF9623"/>
</linearGradient>
<linearGradient id="paint1_linear" x1="55.4168" y1="34.3359" x2="55.4168" y2="36.0025" gradientUnits="userSpaceOnUse">
<stop stop-color="#FF5A10"/>
<stop offset="1" stop-color="#FF9623"/>
</linearGradient>
<linearGradient id="paint2_linear" x1="60" y1="37.6689" x2="60" y2="39.3355" gradientUnits="userSpaceOnUse">
<stop stop-color="#FF5A10"/>
<stop offset="1" stop-color="#FF9623"/>
</linearGradient>
<linearGradient id="paint3_linear" x1="58.3334" y1="41.0022" x2="58.3334" y2="42.6687" gradientUnits="userSpaceOnUse">
<stop stop-color="#FF5A10"/>
<stop offset="1" stop-color="#FF9623"/>
</linearGradient>
<linearGradient id="paint4_linear" x1="54.1668" y1="44.3352" x2="54.1668" y2="46.0018" gradientUnits="userSpaceOnUse">
<stop stop-color="#FF5A10"/>
<stop offset="1" stop-color="#FF9623"/>
</linearGradient>
<linearGradient id="paint5_linear" x1="41.2513" y1="37.6689" x2="41.2513" y2="41.8351" gradientUnits="userSpaceOnUse">
<stop stop-color="#FF5A10"/>
<stop offset="1" stop-color="#FF9623"/>
</linearGradient>
<linearGradient id="paint6_linear" x1="40.0012" y1="43.502" x2="40.0012" y2="46.8354" gradientUnits="userSpaceOnUse">
<stop stop-color="#FF5A10"/>
<stop offset="1" stop-color="#FF9623"/>
</linearGradient>
<linearGradient id="paint7_linear" x1="40.0012" y1="48.502" x2="40.0012" y2="51.8351" gradientUnits="userSpaceOnUse">
<stop stop-color="#FF5A10"/>
<stop offset="1" stop-color="#FF9623"/>
</linearGradient>
<linearGradient id="paint8_linear" x1="78.7493" y1="37.6689" x2="78.7493" y2="41.8351" gradientUnits="userSpaceOnUse">
<stop stop-color="#FF5A10"/>
<stop offset="1" stop-color="#FF9623"/>
</linearGradient>
<linearGradient id="paint9_linear" x1="79.9993" y1="43.502" x2="79.9993" y2="46.8354" gradientUnits="userSpaceOnUse">
<stop stop-color="#FF5A10"/>
<stop offset="1" stop-color="#FF9623"/>
</linearGradient>
<linearGradient id="paint10_linear" x1="79.9993" y1="48.502" x2="79.9993" y2="51.8351" gradientUnits="userSpaceOnUse">
<stop stop-color="#FF5A10"/>
<stop offset="1" stop-color="#FF9623"/>
</linearGradient>
<linearGradient id="paint11_linear" x1="41.2513" y1="73.5005" x2="41.2513" y2="77.6667" gradientUnits="userSpaceOnUse">
<stop stop-color="#FF5A10"/>
<stop offset="1" stop-color="#FF9623"/>
</linearGradient>
<linearGradient id="paint12_linear" x1="40.0012" y1="68.5007" x2="40.0012" y2="71.8342" gradientUnits="userSpaceOnUse">
<stop stop-color="#FF5A10"/>
<stop offset="1" stop-color="#FF9623"/>
</linearGradient>
<linearGradient id="paint13_linear" x1="78.7493" y1="73.5005" x2="78.7493" y2="77.6667" gradientUnits="userSpaceOnUse">
<stop stop-color="#FF5A10"/>
<stop offset="1" stop-color="#FF9623"/>
</linearGradient>
<linearGradient id="paint14_linear" x1="79.9993" y1="68.5007" x2="79.9993" y2="71.8342" gradientUnits="userSpaceOnUse">
<stop stop-color="#FF5A10"/>
<stop offset="1" stop-color="#FF9623"/>
</linearGradient>
<clipPath id="clip0">
<rect x="35" y="31" width="50" height="50" fill="white"/>
</clipPath>
</defs>
</svg>
